%YAML 1.1
%TAG !u! tag:unity3d.com,2011:
--- !u!114 &11400000
MonoBehaviour:
  m_ObjectHideFlags: 0
  m_CorrespondingSourceObject: {fileID: 0}
  m_PrefabInstance: {fileID: 0}
  m_PrefabAsset: {fileID: 0}
  m_GameObject: {fileID: 0}
  m_Enabled: 1
  m_EditorHideFlags: 0
  m_Script: {fileID: 11500000, guid: b65c55e3f640a5243a85e0c5d92f0e20, type: 3}
  m_Name: Projectile Factory
  m_EditorClassIdentifier: 
  m_Mesh: {fileID: 10207, guid: 0000000000000000e000000000000000, type: 0}
  m_Material: {fileID: 2100000, guid: 92b681d8461bd5941a273d91c37ef2f0, type: 2}
  m_ProjectileSpeed: 30
  m_ProjectileLifeTime: 5
  m_BlockDestructionRadius: 1
